<?xml version="1.0" encoding="UTF-8" standalone="no"?>
<!-- Created with Inkscape (http://www.inkscape.org/) -->

<svg
   width="210mm"
   height="297mm"
   viewBox="0 0 210 297"
   version="1.1"
   id="svg5"
   inkscape:version="1.2.2 (b0a8486541, 2022-12-01)"
   sodipodi:docname="lasercut.svg"
   xmlns:inkscape="http://www.inkscape.org/namespaces/inkscape"
   xmlns:sodipodi="http://sodipodi.sourceforge.net/DTD/sodipodi-0.dtd"
   xmlns="http://www.w3.org/2000/svg"
   xmlns:svg="http://www.w3.org/2000/svg">
  <sodipodi:namedview
     id="namedview7"
     pagecolor="#ffffff"
     bordercolor="#999999"
     borderopacity="1"
     inkscape:showpageshadow="0"
     inkscape:pageopacity="0"
     inkscape:pagecheckerboard="0"
     inkscape:deskcolor="#d1d1d1"
     inkscape:document-units="mm"
     showgrid="false"
     inkscape:zoom="2.5614907"
     inkscape:cx="244.77934"
     inkscape:cy="612.53394"
     inkscape:current-layer="layer1"
     inkscape:lockguides="true" />
  <defs
     id="defs2">
    <inkscape:path-effect
       effect="tiling"
       id="path-effect762"
       is_visible="true"
       lpeversion="1"
       unit="px"
       seed="1;1"
       lpesatellites=""
       num_rows="1"
       num_cols="16"
       gapx="5"
       gapy="0"
       offset="0"
       offset_type="false"
       scale="0"
       rotate="0"
       mirrorrowsx="false"
       mirrorrowsy="false"
       mirrorcolsx="false"
       mirrorcolsy="false"
       mirrortrans="false"
       shrink_interp="false"
       split_items="false"
       link_styles="false"
       interpolate_scalex="false"
       interpolate_scaley="true"
       interpolate_rotatex="false"
       interpolate_rotatey="true"
       random_scale="false"
       random_rotate="false"
       random_gap_y="false"
       random_gap_x="false"
       transformorigin="matrix(1.056507,0,0,0.99485359,-2.2373567,0.74275638)" />
    <inkscape:path-effect
       effect="tiling"
       id="path-effect1865"
       is_visible="true"
       lpeversion="1"
       unit="px"
       seed="1;1"
       lpesatellites=""
       num_rows="1"
       num_cols="16"
       gapx="10"
       gapy="0"
       offset="0"
       offset_type="false"
       scale="0"
       rotate="0"
       mirrorrowsx="false"
       mirrorrowsy="false"
       mirrorcolsx="false"
       mirrorcolsy="false"
       mirrortrans="false"
       shrink_interp="false"
       split_items="false"
       link_styles="false"
       interpolate_scalex="false"
       interpolate_scaley="true"
       interpolate_rotatex="false"
       interpolate_rotatey="true"
       random_scale="false"
       random_rotate="false"
       random_gap_y="false"
       random_gap_x="false"
       transformorigin="" />
    <inkscape:path-effect
       effect="spiro"
       id="path-effect556"
       is_visible="true"
       lpeversion="1" />
  </defs>
  <g
     inkscape:label="Calque 1"
     inkscape:groupmode="layer"
     id="layer1">
    <g
       id="g2366"
       style="fill:none;stroke:#000000;stroke-width:0.5;stroke-dasharray:none"
       transform="translate(-6.3500003)">
      <path
         id="path2250"
         style="overflow:visible;fill-rule:evenodd;paint-order:markers stroke fill;stop-color:#000000"
         d="m 33.389888,149.25 a 0.72698474,0.72698474 0 0 1 -0.726985,0.72698 0.72698474,0.72698474 0 0 1 -0.726985,-0.72698 0.72698474,0.72698474 0 0 1 0.726985,-0.72698 0.72698474,0.72698474 0 0 1 0.726985,0.72698 z" />
      <path
         id="circle2252"
         style="overflow:visible;fill-rule:evenodd;paint-order:markers stroke fill;stop-color:#000000"
         d="m 33.389888,166.71249 a 0.72698474,0.72698474 0 0 1 -0.726985,0.72699 0.72698474,0.72698474 0 0 1 -0.726985,-0.72699 0.72698474,0.72698474 0 0 1 0.726985,-0.72698 0.72698474,0.72698474 0 0 1 0.726985,0.72698 z" />
      <path
         id="circle2254"
         style="overflow:visible;fill-rule:evenodd;paint-order:markers stroke fill;stop-color:#000000"
         d="m 33.389888,157.98125 a 0.72698474,0.72698474 0 0 1 -0.726985,0.72698 0.72698474,0.72698474 0 0 1 -0.726985,-0.72698 0.72698474,0.72698474 0 0 1 0.726985,-0.72699 0.72698474,0.72698474 0 0 1 0.726985,0.72699 z" />
    </g>
    <g
       id="g2371"
       style="fill:none;stroke:#000000;stroke-width:0.5;stroke-dasharray:none"
       transform="translate(6.879167)">
      <path
         id="circle2256"
         style="overflow:visible;fill-rule:evenodd;paint-order:markers stroke fill;stop-color:#000000"
         d="m 87.894053,149.25 a 0.72698474,0.72698474 0 0 1 -0.726985,0.72698 0.72698474,0.72698474 0 0 1 -0.726984,-0.72698 0.72698474,0.72698474 0 0 1 0.726984,-0.72698 0.72698474,0.72698474 0 0 1 0.726985,0.72698 z" />
      <path
         id="circle2258"
         style="overflow:visible;fill-rule:evenodd;paint-order:markers stroke fill;stop-color:#000000"
         d="m 87.894053,166.71249 a 0.72698474,0.72698474 0 0 1 -0.726985,0.72699 0.72698474,0.72698474 0 0 1 -0.726984,-0.72699 0.72698474,0.72698474 0 0 1 0.726984,-0.72698 0.72698474,0.72698474 0 0 1 0.726985,0.72698 z" />
      <path
         id="circle2260"
         style="overflow:visible;fill-rule:evenodd;paint-order:markers stroke fill;stop-color:#000000"
         d="m 87.894053,157.98125 a 0.72698474,0.72698474 0 0 1 -0.726985,0.72698 0.72698474,0.72698474 0 0 1 -0.726984,-0.72698 0.72698474,0.72698474 0 0 1 0.726984,-0.72699 0.72698474,0.72698474 0 0 1 0.726985,0.72699 z" />
    </g>
    <g
       id="g2381"
       transform="translate(-6.3500003,24.969524)"
       style="fill:none;stroke:#000000;stroke-width:0.5;stroke-dasharray:none">
      <path
         id="circle2375"
         style="overflow:visible;fill-rule:evenodd;paint-order:markers stroke fill;stop-color:#000000"
         d="m 33.389888,149.25 a 0.72698474,0.72698474 0 0 1 -0.726985,0.72698 0.72698474,0.72698474 0 0 1 -0.726985,-0.72698 0.72698474,0.72698474 0 0 1 0.726985,-0.72698 0.72698474,0.72698474 0 0 1 0.726985,0.72698 z" />
      <path
         id="circle2377"
         style="overflow:visible;fill-rule:evenodd;paint-order:markers stroke fill;stop-color:#000000"
         d="m 33.389888,166.71249 a 0.72698474,0.72698474 0 0 1 -0.726985,0.72699 0.72698474,0.72698474 0 0 1 -0.726985,-0.72699 0.72698474,0.72698474 0 0 1 0.726985,-0.72698 0.72698474,0.72698474 0 0 1 0.726985,0.72698 z" />
      <path
         id="circle2379"
         style="overflow:visible;fill-rule:evenodd;paint-order:markers stroke fill;stop-color:#000000"
         d="m 33.389888,157.98125 a 0.72698474,0.72698474 0 0 1 -0.726985,0.72698 0.72698474,0.72698474 0 0 1 -0.726985,-0.72698 0.72698474,0.72698474 0 0 1 0.726985,-0.72699 0.72698474,0.72698474 0 0 1 0.726985,0.72699 z" />
    </g>
    <g
       id="g2389"
       transform="translate(6.879167,24.969524)"
       style="fill:none;stroke:#000000;stroke-width:0.5;stroke-dasharray:none">
      <path
         id="circle2383"
         style="overflow:visible;fill-rule:evenodd;paint-order:markers stroke fill;stop-color:#000000"
         d="m 87.894053,149.25 a 0.72698474,0.72698474 0 0 1 -0.726985,0.72698 0.72698474,0.72698474 0 0 1 -0.726984,-0.72698 0.72698474,0.72698474 0 0 1 0.726984,-0.72698 0.72698474,0.72698474 0 0 1 0.726985,0.72698 z" />
      <path
         id="circle2385"
         style="overflow:visible;fill-rule:evenodd;paint-order:markers stroke fill;stop-color:#000000"
         d="m 87.894053,166.71249 a 0.72698474,0.72698474 0 0 1 -0.726985,0.72699 0.72698474,0.72698474 0 0 1 -0.726984,-0.72699 0.72698474,0.72698474 0 0 1 0.726984,-0.72698 0.72698474,0.72698474 0 0 1 0.726985,0.72698 z" />
      <path
         id="circle2387"
         style="overflow:visible;fill-rule:evenodd;paint-order:markers stroke fill;stop-color:#000000"
         d="m 87.894053,157.98125 a 0.72698474,0.72698474 0 0 1 -0.726985,0.72698 0.72698474,0.72698474 0 0 1 -0.726984,-0.72698 0.72698474,0.72698474 0 0 1 0.726984,-0.72699 0.72698474,0.72698474 0 0 1 0.726985,0.72699 z" />
    </g>
  </g>
</svg>
